numberOfHosts = 2;	
numberOfVMs = 16;	
numberOfCuts = 4;	
	
CPU_req = [ 1.86  2.37  2.80  2.11  1.67  2.17  1.95  2.10  2.75  2.11  2.09  2.04  1.71  1.89  1.63  2.14 ];	
MEM_req = [ 2868.20  3156.88  4069.39  1878.48  4572.64  6087.53  2769.93  6651.38  1555.07  3847.36  1048.33  2605.81  1033.32  2380.04  2045.33  2945.57 ];	
NET_req = [ 17.49  13.86  59.89  90.11  93.94  22.12  48.27  37.60  52.38  26.49  6.84  43.63  17.39  2.61  95.47  43.06 ];	
	
CPU_cap = [ 26.82  22.70 ];	
MEM_cap = [ 11170.47  61196.94 ];	
NET_cap = [ 805.95  745.13 ];	
	
T = [ 0.00  0.05  0.09  4.92  5.48  0.75  0.96  1.23  3.02  1.37  0.15  2.69  0.72  0.13  0.23  0.23  0.10  0.00  2.29  2.58  1.67  0.29  3.09  1.74  0.27  1.05  0.11  0.16  0.95  0.13  2.04  0.45  3.46  0.61  0.00  3.91  5.27  0.30  0.17  0.61  1.57  0.71  0.31  0.68  0.06  0.09  6.07  2.62  1.47  0.69  3.55  0.00  4.93  0.45  1.98  0.85  1.63  0.94  0.03  1.42  0.90  0.09  2.28  0.31  2.90  0.26  5.31  1.10  0.00  0.13  0.54  1.81  0.28  1.30  0.13  2.96  0.58  0.04  1.93  0.79  0.63  0.53  0.75  1.37  1.04  0.00  2.80  1.29  2.83  0.29  0.13  2.44  0.77  0.11  0.75  0.81  2.08  2.66  2.49  0.42  2.74  0.08  0.00  2.08  2.77  0.58  0.41  1.39  0.23  0.12  5.71  0.35  1.44  2.02  0.92  1.98  0.01  1.28  1.68  0.00  1.37  1.45  0.21  1.03  0.60  0.07  0.85  2.85  2.57  2.63  1.11  1.35  1.79  2.19  2.33  2.37  0.00  0.59  0.36  0.18  0.78  0.07  2.07  2.32  0.71  0.49  1.17  1.44  0.23  0.35  1.03  0.55  1.42  0.00  0.28  2.28  1.06  0.07  5.60  2.43  0.27  0.45  0.35  0.31  0.25  0.12  0.45  0.25  0.01  0.33  0.00  1.56  0.49  0.04  3.12  2.16  1.00  1.94  0.71  1.79  1.86  1.85  1.38  0.11  1.58  1.26  0.33  0.00  0.09  0.10  3.84  1.71  1.04  0.02  0.92  0.69  0.59  0.72  0.80  0.10  0.97  0.02  0.32  0.20  0.00  0.14  3.64  1.08  0.05  0.15  0.08  0.15  0.01  0.03  0.12  0.14  0.12  0.05  0.02  0.13  0.12  0.00  4.36  2.20  4.30  0.82  0.77  1.19  0.91  3.65  0.46  5.13  4.51  5.78  3.07  4.09  5.55  3.36  0.00  0.39  0.11  2.74  1.13  2.81  0.82  1.93  3.11  0.16  0.18  0.07  2.26  1.99  0.38  2.64  2.05  0.00 ];	
C = [	
[ 1  0 ]	
[ 0  1 ]	
[ 1  0 ]	
[ 0  1 ]	
];	
